[
   {
      "DTSTART;VALUE=DATE":"20180110",
      "DTEND;VALUE=DATE":"20180111",
      "DTSTAMP":"20180323T121234Z",
      "UID":"ed066a7b55192cba78d439460b3b0082",
      "CREATED":"20180101T090000Z",
      "DESCRIPTION":"Gelber Sack nicht vergessen!",
      "LAST-MODIFIED":"20180101T090000Z",
      "LOCATION":"Gutach",
      "SEQUENCE":"0",
      "STATUS":"CONFIRMED",
      "SUMMARY":"Gelber Sack",
      "TRANSP":"TRANSPARENT"
   },
   {
      "DTSTART;VALUE=DATE":"20180110",
      "DTEND;VALUE=DATE":"20180111",
      "DTSTAMP":"20180323T121234Z",
      "UID":"695cd9bd5335d9f6f432846bd0026c96",
      "CREATED":"20180101T090000Z",
      "DESCRIPTION":"Graue Tonne nicht vergessen!",
      "LAST-MODIFIED":"20180101T090000Z",
      "LOCATION":"Gutach",
      "SEQUENCE":"0",
      "STATUS":"CONFIRMED",
      "SUMMARY":"Graue Tonne",
      "TRANSP":"TRANSPARENT"
   },
   {
      "DTSTART;VALUE=DATE":"20180124",
      "DTEND;VALUE=DATE":"20180125",
      "DTSTAMP":"20180323T121234Z",
      "UID":"60ebea990c098cf416c6ee991399558a",
      "CREATED":"20180101T090000Z",
      "DESCRIPTION":"Gelber Sack nicht vergessen!",
      "LAST-MODIFIED":"20180101T090000Z",
      "LOCATION":"Gutach",
      "SEQUENCE":"0",
      "STATUS":"CONFIRMED",
      "SUMMARY":"Gelber Sack",
      "TRANSP":"TRANSPARENT"
   },
   {
      "DTSTART;VALUE=DATE":"20180124",
      "DTEND;VALUE=DATE":"20180125",
      "DTSTAMP":"20180323T121234Z",
      "UID":"2440ee5b872bdb2d3abbfe738937de3f",
      "CREATED":"20180101T090000Z",
      "DESCRIPTION":"Graue Tonne nicht vergessen!",
      "LAST-MODIFIED":"20180101T090000Z",
      "LOCATION":"Gutach",
      "SEQUENCE":"0",
      "STATUS":"CONFIRMED",
      "SUMMARY":"Graue Tonne",
      "TRANSP":"TRANSPARENT"
   },
   {
      "DTSTART;VALUE=DATE":"20180125",
      "DTEND;VALUE=DATE":"20180126",
      "DTSTAMP":"20180323T121234Z",
      "UID":"55deb116a870e36111becd7dee05c858",
      "CREATED":"20180101T090000Z",
      "DESCRIPTION":"Papiertonne nicht vergessen!",
      "LAST-MODIFIED":"20180101T090000Z",
      "LOCATION":"Gutach",
      "SEQUENCE":"0",
      "STATUS":"CONFIRMED",
      "SUMMARY":"Papiertonne",
      "TRANSP":"TRANSPARENT"
   },
   {
      "DTSTART;VALUE=DATE":"20180207",
      "DTEND;VALUE=DATE":"20180208",
      "DTSTAMP":"20180323T121234Z",
      "UID":"6f83724cd412633b9c43c39b324e2578",
      "CREATED":"20180101T090000Z",
      "DESCRIPTION":"Gelber Sack nicht vergessen!",
      "LAST-MODIFIED":"20180101T090000Z",
      "LOCATION":"Gutach",
      "SEQUENCE":"0",
      "STATUS":"CONFIRMED",
      "SUMMARY":"Gelber Sack",
      "TRANSP":"TRANSPARENT"
   },
   {
      "DTSTART;VALUE=DATE":"20180207",
      "DTEND;VALUE=DATE":"20180208",
      "DTSTAMP":"20180323T121234Z",
      "UID":"0b3bc568ca5edb7f9257877b830e3277",
      "CREATED":"20180101T090000Z",
      "DESCRIPTION":"Graue Tonne nicht vergessen!",
      "LAST-MODIFIED":"20180101T090000Z",
      "LOCATION":"Gutach",
      "SEQUENCE":"0",
      "STATUS":"CONFIRMED",
      "SUMMARY":"Graue Tonne",
      "TRANSP":"TRANSPARENT"
   },
   {
      "DTSTART;VALUE=DATE":"20180221",
      "DTEND;VALUE=DATE":"20180222",
      "DTSTAMP":"20180323T121234Z",
      "UID":"a2a548f91961645743ba27b16071d973",
      "CREATED":"20180101T090000Z",
      "DESCRIPTION":"Gelber Sack nicht vergessen!",
      "LAST-MODIFIED":"20180101T090000Z",
      "LOCATION":"Gutach",
      "SEQUENCE":"0",
      "STATUS":"CONFIRMED",
      "SUMMARY":"Gelber Sack",
      "TRANSP":"TRANSPARENT"
   },
   {
      "DTSTART;VALUE=DATE":"20180221",
      "DTEND;VALUE=DATE":"20180222",
      "DTSTAMP":"20180323T121234Z",
      "UID":"9dbc708678ebcb587c73cf3f978732c7",
      "CREATED":"20180101T090000Z",
      "DESCRIPTION":"Graue Tonne nicht vergessen!",
      "LAST-MODIFIED":"20180101T090000Z",
      "LOCATION":"Gutach",
      "SEQUENCE":"0",
      "STATUS":"CONFIRMED",
      "SUMMARY":"Graue Tonne",
      "TRANSP":"TRANSPARENT"
   },
   {
      "DTSTART;VALUE=DATE":"20180222",
      "DTEND;VALUE=DATE":"20180223",
      "DTSTAMP":"20180323T121234Z",
      "UID":"6fdbf31a9171516cab3bf8bdcf9dd485",
      "CREATED":"20180101T090000Z",
      "DESCRIPTION":"Papiertonne nicht vergessen!",
      "LAST-MODIFIED":"20180101T090000Z",
      "LOCATION":"Gutach",
      "SEQUENCE":"0",
      "STATUS":"CONFIRMED",
      "SUMMARY":"Papiertonne",
      "TRANSP":"TRANSPARENT"
   },
   {
      "DTSTART;VALUE=DATE":"20180307",
      "DTEND;VALUE=DATE":"20180308",
      "DTSTAMP":"20180323T121234Z",
      "UID":"6c6f9f0a61a4aa94fcb773680b45685f",
      "CREATED":"20180101T090000Z",
      "DESCRIPTION":"Gelber Sack nicht vergessen!",
      "LAST-MODIFIED":"20180101T090000Z",
      "LOCATION":"Gutach",
      "SEQUENCE":"0",
      "STATUS":"CONFIRMED",
      "SUMMARY":"Gelber Sack",
      "TRANSP":"TRANSPARENT"
   },
   {
      "DTSTART;VALUE=DATE":"20180307",
      "DTEND;VALUE=DATE":"20180308",
      "DTSTAMP":"20180323T121234Z",
      "UID":"f7730f1525fce8b64c641c5c85fba7e2",
      "CREATED":"20180101T090000Z",
      "DESCRIPTION":"Graue Tonne nicht vergessen!",
      "LAST-MODIFIED":"20180101T090000Z",
      "LOCATION":"Gutach",
      "SEQUENCE":"0",
      "STATUS":"CONFIRMED",
      "SUMMARY":"Graue Tonne",
      "TRANSP":"TRANSPARENT"
   },
   {
      "DTSTART;VALUE=DATE":"20180321",
      "DTEND;VALUE=DATE":"20180322",
      "DTSTAMP":"20180323T121234Z",
      "UID":"3b5f0ba9be0286f1bcee1ca2449dd828",
      "CREATED":"20180101T090000Z",
      "DESCRIPTION":"Gelber Sack nicht vergessen!",
      "LAST-MODIFIED":"20180101T090000Z",
      "LOCATION":"Gutach",
      "SEQUENCE":"0",
      "STATUS":"CONFIRMED",
      "SUMMARY":"Gelber Sack",
      "TRANSP":"TRANSPARENT"
   },
   {
      "DTSTART;VALUE=DATE":"20180321",
      "DTEND;VALUE=DATE":"20180322",
      "DTSTAMP":"20180323T121234Z",
      "UID":"cbf0d07a72ff6f2e43e06f0e8b90166a",
      "CREATED":"20180101T090000Z",
      "DESCRIPTION":"Graue Tonne nicht vergessen!",
      "LAST-MODIFIED":"20180101T090000Z",
      "LOCATION":"Gutach",
      "SEQUENCE":"0",
      "STATUS":"CONFIRMED",
      "SUMMARY":"Graue Tonne",
      "TRANSP":"TRANSPARENT"
   },
   {
      "DTSTART;VALUE=DATE":"20180322",
      "DTEND;VALUE=DATE":"20180323",
      "DTSTAMP":"20180323T121234Z",
      "UID":"41f168929b55fa29249bb97d1292b19b",
      "CREATED":"20180101T090000Z",
      "DESCRIPTION":"Papiertonne nicht vergessen!",
      "LAST-MODIFIED":"20180101T090000Z",
      "LOCATION":"Gutach",
      "SEQUENCE":"0",
      "STATUS":"CONFIRMED",
      "SUMMARY":"Papiertonne",
      "TRANSP":"TRANSPARENT"
   },
   {
      "DTSTART;VALUE=DATE":"20180405",
      "DTEND;VALUE=DATE":"20180406",
      "DTSTAMP":"20180323T121234Z",
      "UID":"6bda47cdcbeeb1815545ef4b7925163d",
      "CREATED":"20180101T090000Z",
      "DESCRIPTION":"Gelber Sack nicht vergessen!",
      "LAST-MODIFIED":"20180101T090000Z",
      "LOCATION":"Gutach",
      "SEQUENCE":"0",
      "STATUS":"CONFIRMED",
      "SUMMARY":"Gelber Sack",
      "TRANSP":"TRANSPARENT"
   },
   {
      "DTSTART;VALUE=DATE":"20180405",
      "DTEND;VALUE=DATE":"20180406",
      "DTSTAMP":"20180323T121234Z",
      "UID":"2e452297b8e9532ac62fb747f6da6edb",
      "CREATED":"20180101T090000Z",
      "DESCRIPTION":"Graue Tonne nicht vergessen!",
      "LAST-MODIFIED":"20180101T090000Z",
      "LOCATION":"Gutach",
      "SEQUENCE":"0",
      "STATUS":"CONFIRMED",
      "SUMMARY":"Graue Tonne",
      "TRANSP":"TRANSPARENT"
   },
   {
      "DTSTART;VALUE=DATE":"20180418",
      "DTEND;VALUE=DATE":"20180419",
      "DTSTAMP":"20180323T121234Z",
      "UID":"05d43a9c0cfe2ba80bd4d5b96b36dfec",
      "CREATED":"20180101T090000Z",
      "DESCRIPTION":"Gelber Sack nicht vergessen!",
      "LAST-MODIFIED":"20180101T090000Z",
      "LOCATION":"Gutach",
      "SEQUENCE":"0",
      "STATUS":"CONFIRMED",
      "SUMMARY":"Gelber Sack",
      "TRANSP":"TRANSPARENT"
   },
   {
      "DTSTART;VALUE=DATE":"20180418",
      "DTEND;VALUE=DATE":"20180419",
      "DTSTAMP":"20180323T121234Z",
      "UID":"ea334abb94b657ff47a7d0cf4a5d44d5",
      "CREATED":"20180101T090000Z",
      "DESCRIPTION":"Graue Tonne nicht vergessen!",
      "LAST-MODIFIED":"20180101T090000Z",
      "LOCATION":"Gutach",
      "SEQUENCE":"0",
      "STATUS":"CONFIRMED",
      "SUMMARY":"Graue Tonne",
      "TRANSP":"TRANSPARENT"
   },
   {
      "DTSTART;VALUE=DATE":"20180419",
      "DTEND;VALUE=DATE":"20180420",
      "DTSTAMP":"20180323T121234Z",
      "UID":"40bbb2811bcbe57c94d76c829edea97e",
      "CREATED":"20180101T090000Z",
      "DESCRIPTION":"Papiertonne nicht vergessen!",
      "LAST-MODIFIED":"20180101T090000Z",
      "LOCATION":"Gutach",
      "SEQUENCE":"0",
      "STATUS":"CONFIRMED",
      "SUMMARY":"Papiertonne",
      "TRANSP":"TRANSPARENT"
   },
   {
      "DTSTART;VALUE=DATE":"20180503",
      "DTEND;VALUE=DATE":"20180504",
      "DTSTAMP":"20180323T121234Z",
      "UID":"432fbe8241843c056568dc6330241f40",
      "CREATED":"20180101T090000Z",
      "DESCRIPTION":"Gelber Sack nicht vergessen!",
      "LAST-MODIFIED":"20180101T090000Z",
      "LOCATION":"Gutach",
      "SEQUENCE":"0",
      "STATUS":"CONFIRMED",
      "SUMMARY":"Gelber Sack",
      "TRANSP":"TRANSPARENT"
   },
   {
      "DTSTART;VALUE=DATE":"20180503",
      "DTEND;VALUE=DATE":"20180504",
      "DTSTAMP":"20180323T121234Z",
      "UID":"edba2d6f3e5781a9d28b434910757292",
      "CREATED":"20180101T090000Z",
      "DESCRIPTION":"Graue Tonne nicht vergessen!",
      "LAST-MODIFIED":"20180101T090000Z",
      "LOCATION":"Gutach",
      "SEQUENCE":"0",
      "STATUS":"CONFIRMED",
      "SUMMARY":"Graue Tonne",
      "TRANSP":"TRANSPARENT"
   },
   {
      "DTSTART;VALUE=DATE":"20180516",
      "DTEND;VALUE=DATE":"20180517",
      "DTSTAMP":"20180323T121234Z",
      "UID":"124d05c0e5e7eda3c7aafce6f687b034",
      "CREATED":"20180101T090000Z",
      "DESCRIPTION":"Gelber Sack nicht vergessen!",
      "LAST-MODIFIED":"20180101T090000Z",
      "LOCATION":"Gutach",
      "SEQUENCE":"0",
      "STATUS":"CONFIRMED",
      "SUMMARY":"Gelber Sack",
      "TRANSP":"TRANSPARENT"
   },
   {
      "DTSTART;VALUE=DATE":"20180516",
      "DTEND;VALUE=DATE":"20180517",
      "DTSTAMP":"20180323T121234Z",
      "UID":"2c3aaeb0874041d39abde80f191ab413",
      "CREATED":"20180101T090000Z",
      "DESCRIPTION":"Graue Tonne nicht vergessen!",
      "LAST-MODIFIED":"20180101T090000Z",
      "LOCATION":"Gutach",
      "SEQUENCE":"0",
      "STATUS":"CONFIRMED",
      "SUMMARY":"Graue Tonne",
      "TRANSP":"TRANSPARENT"
   },
   {
      "DTSTART;VALUE=DATE":"20180517",
      "DTEND;VALUE=DATE":"20180518",
      "DTSTAMP":"20180323T121234Z",
      "UID":"a1ae313c9958049b9cd2071a0124d87f",
      "CREATED":"20180101T090000Z",
      "DESCRIPTION":"Papiertonne nicht vergessen!",
      "LAST-MODIFIED":"20180101T090000Z",
      "LOCATION":"Gutach",
      "SEQUENCE":"0",
      "STATUS":"CONFIRMED",
      "SUMMARY":"Papiertonne",
      "TRANSP":"TRANSPARENT"
   },
   {
      "DTSTART;VALUE=DATE":"20180530",
      "DTEND;VALUE=DATE":"20180531",
      "DTSTAMP":"20180323T121234Z",
      "UID":"50a0e2bc740bc2c0544badaded4b8f6e",
      "CREATED":"20180101T090000Z",
      "DESCRIPTION":"Gelber Sack nicht vergessen!",
      "LAST-MODIFIED":"20180101T090000Z",
      "LOCATION":"Gutach",
      "SEQUENCE":"0",
      "STATUS":"CONFIRMED",
      "SUMMARY":"Gelber Sack",
      "TRANSP":"TRANSPARENT"
   },
   {
      "DTSTART;VALUE=DATE":"20180530",
      "DTEND;VALUE=DATE":"20180531",
      "DTSTAMP":"20180323T121234Z",
      "UID":"2f9dc19679392ba4bc2fb76b9387f7b4",
      "CREATED":"20180101T090000Z",
      "DESCRIPTION":"Graue Tonne nicht vergessen!",
      "LAST-MODIFIED":"20180101T090000Z",
      "LOCATION":"Gutach",
      "SEQUENCE":"0",
      "STATUS":"CONFIRMED",
      "SUMMARY":"Graue Tonne",
      "TRANSP":"TRANSPARENT"
   },
   {
      "DTSTART;VALUE=DATE":"20180613",
      "DTEND;VALUE=DATE":"20180614",
      "DTSTAMP":"20180323T121234Z",
      "UID":"6b24720d6e6c5a64b53e17fcd770d90b",
      "CREATED":"20180101T090000Z",
      "DESCRIPTION":"Gelber Sack nicht vergessen!",
      "LAST-MODIFIED":"20180101T090000Z",
      "LOCATION":"Gutach",
      "SEQUENCE":"0",
      "STATUS":"CONFIRMED",
      "SUMMARY":"Gelber Sack",
      "TRANSP":"TRANSPARENT"
   },
   {
      "DTSTART;VALUE=DATE":"20180613",
      "DTEND;VALUE=DATE":"20180614",
      "DTSTAMP":"20180323T121234Z",
      "UID":"93fb746f6da70d6580b3641ee7612aec",
      "CREATED":"20180101T090000Z",
      "DESCRIPTION":"Graue Tonne nicht vergessen!",
      "LAST-MODIFIED":"20180101T090000Z",
      "LOCATION":"Gutach",
      "SEQUENCE":"0",
      "STATUS":"CONFIRMED",
      "SUMMARY":"Graue Tonne",
      "TRANSP":"TRANSPARENT"
   },
   {
      "DTSTART;VALUE=DATE":"20180614",
      "DTEND;VALUE=DATE":"20180615",
      "DTSTAMP":"20180323T121234Z",
      "UID":"cc5e5151e69f6e11e69321891dcd51a9",
      "CREATED":"20180101T090000Z",
      "DESCRIPTION":"Papiertonne nicht vergessen!",
      "LAST-MODIFIED":"20180101T090000Z",
      "LOCATION":"Gutach",
      "SEQUENCE":"0",
      "STATUS":"CONFIRMED",
      "SUMMARY":"Papiertonne",
      "TRANSP":"TRANSPARENT"
   },
   {
      "DTSTART;VALUE=DATE":"20180627",
      "DTEND;VALUE=DATE":"20180628",
      "DTSTAMP":"20180323T121234Z",
      "UID":"0d1388e1ef5ded5b37af38248ad85de5",
      "CREATED":"20180101T090000Z",
      "DESCRIPTION":"Gelber Sack nicht vergessen!",
      "LAST-MODIFIED":"20180101T090000Z",
      "LOCATION":"Gutach",
      "SEQUENCE":"0",
      "STATUS":"CONFIRMED",
      "SUMMARY":"Gelber Sack",
      "TRANSP":"TRANSPARENT"
   },
   {
      "DTSTART;VALUE=DATE":"20180627",
      "DTEND;VALUE=DATE":"20180628",
      "DTSTAMP":"20180323T121234Z",
      "UID":"98344f53e97fa779a80e29e3f0bc0f47",
      "CREATED":"20180101T090000Z",
      "DESCRIPTION":"Graue Tonne nicht vergessen!",
      "LAST-MODIFIED":"20180101T090000Z",
      "LOCATION":"Gutach",
      "SEQUENCE":"0",
      "STATUS":"CONFIRMED",
      "SUMMARY":"Graue Tonne",
      "TRANSP":"TRANSPARENT"
   },
   {
      "DTSTART;VALUE=DATE":"20180704",
      "DTEND;VALUE=DATE":"20180705",
      "DTSTAMP":"20180323T121234Z",
      "UID":"703cfb9f634c90692ae630b61908efd6",
      "CREATED":"20180101T090000Z",
      "DESCRIPTION":"Graue Tonne nicht vergessen!",
      "LAST-MODIFIED":"20180101T090000Z",
      "LOCATION":"Gutach",
      "SEQUENCE":"0",
      "STATUS":"CONFIRMED",
      "SUMMARY":"Graue Tonne",
      "TRANSP":"TRANSPARENT"
   },
   {
      "DTSTART;VALUE=DATE":"20180711",
      "DTEND;VALUE=DATE":"20180712",
      "DTSTAMP":"20180323T121234Z",
      "UID":"4670b0f6342e0c1a07e22cdc6273a682",
      "CREATED":"20180101T090000Z",
      "DESCRIPTION":"Gelber Sack nicht vergessen!",
      "LAST-MODIFIED":"20180101T090000Z",
      "LOCATION":"Gutach",
      "SEQUENCE":"0",
      "STATUS":"CONFIRMED",
      "SUMMARY":"Gelber Sack",
      "TRANSP":"TRANSPARENT"
   },
   {
      "DTSTART;VALUE=DATE":"20180711",
      "DTEND;VALUE=DATE":"20180712",
      "DTSTAMP":"20180323T121234Z",
      "UID":"d3c74defa59fc5e26ce9fc3cffbf0a68",
      "CREATED":"20180101T090000Z",
      "DESCRIPTION":"Graue Tonne nicht vergessen!",
      "LAST-MODIFIED":"20180101T090000Z",
      "LOCATION":"Gutach",
      "SEQUENCE":"0",
      "STATUS":"CONFIRMED",
      "SUMMARY":"Graue Tonne",
      "TRANSP":"TRANSPARENT"
   },
   {
      "DTSTART;VALUE=DATE":"20180712",
      "DTEND;VALUE=DATE":"20180713",
      "DTSTAMP":"20180323T121234Z",
      "UID":"36fe050461833d01e23da12f79889d47",
      "CREATED":"20180101T090000Z",
      "DESCRIPTION":"Papiertonne nicht vergessen!",
      "LAST-MODIFIED":"20180101T090000Z",
      "LOCATION":"Gutach",
      "SEQUENCE":"0",
      "STATUS":"CONFIRMED",
      "SUMMARY":"Papiertonne",
      "TRANSP":"TRANSPARENT"
   },
   {
      "DTSTART;VALUE=DATE":"20180718",
      "DTEND;VALUE=DATE":"20180719",
      "DTSTAMP":"20180323T121234Z",
      "UID":"7c46db0b5251f461e89cac5e832a0fc3",
      "CREATED":"20180101T090000Z",
      "DESCRIPTION":"Graue Tonne nicht vergessen!",
      "LAST-MODIFIED":"20180101T090000Z",
      "LOCATION":"Gutach",
      "SEQUENCE":"0",
      "STATUS":"CONFIRMED",
      "SUMMARY":"Graue Tonne",
      "TRANSP":"TRANSPARENT"
   },
   {
      "DTSTART;VALUE=DATE":"20180725",
      "DTEND;VALUE=DATE":"20180726",
      "DTSTAMP":"20180323T121234Z",
      "UID":"272cee83dce59abcdc7e506b3c36d37a",
      "CREATED":"20180101T090000Z",
      "DESCRIPTION":"Gelber Sack nicht vergessen!",
      "LAST-MODIFIED":"20180101T090000Z",
      "LOCATION":"Gutach",
      "SEQUENCE":"0",
      "STATUS":"CONFIRMED",
      "SUMMARY":"Gelber Sack",
      "TRANSP":"TRANSPARENT"
   },
   {
      "DTSTART;VALUE=DATE":"20180725",
      "DTEND;VALUE=DATE":"20180726",
      "DTSTAMP":"20180323T121234Z",
      "UID":"33f4d80ffc7023c3a7a186dcf64500a9",
      "CREATED":"20180101T090000Z",
      "DESCRIPTION":"Graue Tonne nicht vergessen!",
      "LAST-MODIFIED":"20180101T090000Z",
      "LOCATION":"Gutach",
      "SEQUENCE":"0",
      "STATUS":"CONFIRMED",
      "SUMMARY":"Graue Tonne",
      "TRANSP":"TRANSPARENT"
   },
   {
      "DTSTART;VALUE=DATE":"20180801",
      "DTEND;VALUE=DATE":"20180802",
      "DTSTAMP":"20180323T121234Z",
      "UID":"72151c0e0ae842957fc25d85ecdeec16",
      "CREATED":"20180101T090000Z",
      "DESCRIPTION":"Graue Tonne nicht vergessen!",
      "LAST-MODIFIED":"20180101T090000Z",
      "LOCATION":"Gutach",
      "SEQUENCE":"0",
      "STATUS":"CONFIRMED",
      "SUMMARY":"Graue Tonne",
      "TRANSP":"TRANSPARENT"
   },
   {
      "DTSTART;VALUE=DATE":"20180808",
      "DTEND;VALUE=DATE":"20180809",
      "DTSTAMP":"20180323T121234Z",
      "UID":"de8a62671a220400d141fa4d4798b99f",
      "CREATED":"20180101T090000Z",
      "DESCRIPTION":"Gelber Sack nicht vergessen!",
      "LAST-MODIFIED":"20180101T090000Z",
      "LOCATION":"Gutach",
      "SEQUENCE":"0",
      "STATUS":"CONFIRMED",
      "SUMMARY":"Gelber Sack",
      "TRANSP":"TRANSPARENT"
   },
   {
      "DTSTART;VALUE=DATE":"20180808",
      "DTEND;VALUE=DATE":"20180809",
      "DTSTAMP":"20180323T121234Z",
      "UID":"1559787974f837408a50c9379760dcd3",
      "CREATED":"20180101T090000Z",
      "DESCRIPTION":"Graue Tonne nicht vergessen!",
      "LAST-MODIFIED":"20180101T090000Z",
      "LOCATION":"Gutach",
      "SEQUENCE":"0",
      "STATUS":"CONFIRMED",
      "SUMMARY":"Graue Tonne",
      "TRANSP":"TRANSPARENT"
   },
   {
      "DTSTART;VALUE=DATE":"20180809",
      "DTEND;VALUE=DATE":"20180810",
      "DTSTAMP":"20180323T121234Z",
      "UID":"849e4353ef4ae2ec71c10c62702ab21c",
      "CREATED":"20180101T090000Z",
      "DESCRIPTION":"Papiertonne nicht vergessen!",
      "LAST-MODIFIED":"20180101T090000Z",
      "LOCATION":"Gutach",
      "SEQUENCE":"0",
      "STATUS":"CONFIRMED",
      "SUMMARY":"Papiertonne",
      "TRANSP":"TRANSPARENT"
   },
   {
      "DTSTART;VALUE=DATE":"20180815",
      "DTEND;VALUE=DATE":"20180816",
      "DTSTAMP":"20180323T121234Z",
      "UID":"77207dd23545ffb0b0d349fc317b7a83",
      "CREATED":"20180101T090000Z",
      "DESCRIPTION":"Graue Tonne nicht vergessen!",
      "LAST-MODIFIED":"20180101T090000Z",
      "LOCATION":"Gutach",
      "SEQUENCE":"0",
      "STATUS":"CONFIRMED",
      "SUMMARY":"Graue Tonne",
      "TRANSP":"TRANSPARENT"
   },
   {
      "DTSTART;VALUE=DATE":"20180822",
      "DTEND;VALUE=DATE":"20180823",
      "DTSTAMP":"20180323T121234Z",
      "UID":"1fd58576e54fa4ff83e99de7b9fbd9c2",
      "CREATED":"20180101T090000Z",
      "DESCRIPTION":"Gelber Sack nicht vergessen!",
      "LAST-MODIFIED":"20180101T090000Z",
      "LOCATION":"Gutach",
      "SEQUENCE":"0",
      "STATUS":"CONFIRMED",
      "SUMMARY":"Gelber Sack",
      "TRANSP":"TRANSPARENT"
   },
   {
      "DTSTART;VALUE=DATE":"20180822",
      "DTEND;VALUE=DATE":"20180823",
      "DTSTAMP":"20180323T121234Z",
      "UID":"34dd2ebf796d4eb514199e33fc813b9d",
      "CREATED":"20180101T090000Z",
      "DESCRIPTION":"Graue Tonne nicht vergessen!",
      "LAST-MODIFIED":"20180101T090000Z",
      "LOCATION":"Gutach",
      "SEQUENCE":"0",
      "STATUS":"CONFIRMED",
      "SUMMARY":"Graue Tonne",
      "TRANSP":"TRANSPARENT"
   },
   {
      "DTSTART;VALUE=DATE":"20180829",
      "DTEND;VALUE=DATE":"20180830",
      "DTSTAMP":"20180323T121234Z",
      "UID":"d2b21cbe4de3b0cd4f6d80a03d5f2431",
      "CREATED":"20180101T090000Z",
      "DESCRIPTION":"Graue Tonne nicht vergessen!",
      "LAST-MODIFIED":"20180101T090000Z",
      "LOCATION":"Gutach",
      "SEQUENCE":"0",
      "STATUS":"CONFIRMED",
      "SUMMARY":"Graue Tonne",
      "TRANSP":"TRANSPARENT"
   },
   {
      "DTSTART;VALUE=DATE":"20180905",
      "DTEND;VALUE=DATE":"20180906",
      "DTSTAMP":"20180323T121234Z",
      "UID":"c68e1845e798abcdc7eefc3f60c99ce9",
      "CREATED":"20180101T090000Z",
      "DESCRIPTION":"Gelber Sack nicht vergessen!",
      "LAST-MODIFIED":"20180101T090000Z",
      "LOCATION":"Gutach",
      "SEQUENCE":"0",
      "STATUS":"CONFIRMED",
      "SUMMARY":"Gelber Sack",
      "TRANSP":"TRANSPARENT"
   },
   {
      "DTSTART;VALUE=DATE":"20180905",
      "DTEND;VALUE=DATE":"20180906",
      "DTSTAMP":"20180323T121234Z",
      "UID":"e708efca0b7bf00f97ce79eef729d103",
      "CREATED":"20180101T090000Z",
      "DESCRIPTION":"Graue Tonne nicht vergessen!",
      "LAST-MODIFIED":"20180101T090000Z",
      "LOCATION":"Gutach",
      "SEQUENCE":"0",
      "STATUS":"CONFIRMED",
      "SUMMARY":"Graue Tonne",
      "TRANSP":"TRANSPARENT"
   },
   {
      "DTSTART;VALUE=DATE":"20180906",
      "DTEND;VALUE=DATE":"20180907",
      "DTSTAMP":"20180323T121234Z",
      "UID":"7ab9f67d37b61055da540e8ad04f44e8",
      "CREATED":"20180101T090000Z",
      "DESCRIPTION":"Papiertonne nicht vergessen!",
      "LAST-MODIFIED":"20180101T090000Z",
      "LOCATION":"Gutach",
      "SEQUENCE":"0",
      "STATUS":"CONFIRMED",
      "SUMMARY":"Papiertonne",
      "TRANSP":"TRANSPARENT"
   },
   {
      "DTSTART;VALUE=DATE":"20180919",
      "DTEND;VALUE=DATE":"20180920",
      "DTSTAMP":"20180323T121234Z",
      "UID":"720c5003bc93213fc1b36834582be6b9",
      "CREATED":"20180101T090000Z",
      "DESCRIPTION":"Gelber Sack nicht vergessen!",
      "LAST-MODIFIED":"20180101T090000Z",
      "LOCATION":"Gutach",
      "SEQUENCE":"0",
      "STATUS":"CONFIRMED",
      "SUMMARY":"Gelber Sack",
      "TRANSP":"TRANSPARENT"
   },
   {
      "DTSTART;VALUE=DATE":"20180919",
      "DTEND;VALUE=DATE":"20180920",
      "DTSTAMP":"20180323T121234Z",
      "UID":"0c93e54c9ced0e802acf0b672d0acfd3",
      "CREATED":"20180101T090000Z",
      "DESCRIPTION":"Graue Tonne nicht vergessen!",
      "LAST-MODIFIED":"20180101T090000Z",
      "LOCATION":"Gutach",
      "SEQUENCE":"0",
      "STATUS":"CONFIRMED",
      "SUMMARY":"Graue Tonne",
      "TRANSP":"TRANSPARENT"
   },
   {
      "DTSTART;VALUE=DATE":"20181004",
      "DTEND;VALUE=DATE":"20181005",
      "DTSTAMP":"20180323T121234Z",
      "UID":"1c8e2c6822817264b89deed4adfacf98",
      "CREATED":"20180101T090000Z",
      "DESCRIPTION":"Gelber Sack nicht vergessen!",
      "LAST-MODIFIED":"20180101T090000Z",
      "LOCATION":"Gutach",
      "SEQUENCE":"0",
      "STATUS":"CONFIRMED",
      "SUMMARY":"Gelber Sack",
      "TRANSP":"TRANSPARENT"
   },
   {
      "DTSTART;VALUE=DATE":"20181004",
      "DTEND;VALUE=DATE":"20181005",
      "DTSTAMP":"20180323T121234Z",
      "UID":"51bcf9c8fbafb0f6a4e2c8e3f62ccce2",
      "CREATED":"20180101T090000Z",
      "DESCRIPTION":"Graue Tonne nicht vergessen!",
      "LAST-MODIFIED":"20180101T090000Z",
      "LOCATION":"Gutach",
      "SEQUENCE":"0",
      "STATUS":"CONFIRMED",
      "SUMMARY":"Graue Tonne",
      "TRANSP":"TRANSPARENT"
   },
   {
      "DTSTART;VALUE=DATE":"20181005",
      "DTEND;VALUE=DATE":"20181006",
      "DTSTAMP":"20180323T121234Z",
      "UID":"16a303dcb941e117e065b50fbe784315",
      "CREATED":"20180101T090000Z",
      "DESCRIPTION":"Papiertonne nicht vergessen!",
      "LAST-MODIFIED":"20180101T090000Z",
      "LOCATION":"Gutach",
      "SEQUENCE":"0",
      "STATUS":"CONFIRMED",
      "SUMMARY":"Papiertonne",
      "TRANSP":"TRANSPARENT"
   },
   {
      "DTSTART;VALUE=DATE":"20181017",
      "DTEND;VALUE=DATE":"20181018",
      "DTSTAMP":"20180323T121234Z",
      "UID":"5aba9104f31b4a70865c5cca3a84b891",
      "CREATED":"20180101T090000Z",
      "DESCRIPTION":"Gelber Sack nicht vergessen!",
      "LAST-MODIFIED":"20180101T090000Z",
      "LOCATION":"Gutach",
      "SEQUENCE":"0",
      "STATUS":"CONFIRMED",
      "SUMMARY":"Gelber Sack",
      "TRANSP":"TRANSPARENT"
   },
   {
      "DTSTART;VALUE=DATE":"20181017",
      "DTEND;VALUE=DATE":"20181018",
      "DTSTAMP":"20180323T121234Z",
      "UID":"b09082d5cb3abf3577f1721d6cc3d528",
      "CREATED":"20180101T090000Z",
      "DESCRIPTION":"Graue Tonne nicht vergessen!",
      "LAST-MODIFIED":"20180101T090000Z",
      "LOCATION":"Gutach",
      "SEQUENCE":"0",
      "STATUS":"CONFIRMED",
      "SUMMARY":"Graue Tonne",
      "TRANSP":"TRANSPARENT"
   },
   {
      "DTSTART;VALUE=DATE":"20181031",
      "DTEND;VALUE=DATE":"20181101",
      "DTSTAMP":"20180323T121234Z",
      "UID":"5171193a612c59aeb65c4df55a3b3c7a",
      "CREATED":"20180101T090000Z",
      "DESCRIPTION":"Gelber Sack nicht vergessen!",
      "LAST-MODIFIED":"20180101T090000Z",
      "LOCATION":"Gutach",
      "SEQUENCE":"0",
      "STATUS":"CONFIRMED",
      "SUMMARY":"Gelber Sack",
      "TRANSP":"TRANSPARENT"
   },
   {
      "DTSTART;VALUE=DATE":"20181031",
      "DTEND;VALUE=DATE":"20181101",
      "DTSTAMP":"20180323T121234Z",
      "UID":"0d98926c33dd2d39258d096898c5271e",
      "CREATED":"20180101T090000Z",
      "DESCRIPTION":"Graue Tonne nicht vergessen!",
      "LAST-MODIFIED":"20180101T090000Z",
      "LOCATION":"Gutach",
      "SEQUENCE":"0",
      "STATUS":"CONFIRMED",
      "SUMMARY":"Graue Tonne",
      "TRANSP":"TRANSPARENT"
   },
   {
      "DTSTART;VALUE=DATE":"20181102",
      "DTEND;VALUE=DATE":"20181103",
      "DTSTAMP":"20180323T121234Z",
      "UID":"432ce6a97ac2c42cb6dd5c6c2025bf25",
      "CREATED":"20180101T090000Z",
      "DESCRIPTION":"Papiertonne nicht vergessen!",
      "LAST-MODIFIED":"20180101T090000Z",
      "LOCATION":"Gutach",
      "SEQUENCE":"0",
      "STATUS":"CONFIRMED",
      "SUMMARY":"Papiertonne",
      "TRANSP":"TRANSPARENT"
   },
   {
      "DTSTART;VALUE=DATE":"20181114",
      "DTEND;VALUE=DATE":"20181115",
      "DTSTAMP":"20180323T121234Z",
      "UID":"3ea5da5c47ae587b302f75fce969ad51",
      "CREATED":"20180101T090000Z",
      "DESCRIPTION":"Gelber Sack nicht vergessen!",
      "LAST-MODIFIED":"20180101T090000Z",
      "LOCATION":"Gutach",
      "SEQUENCE":"0",
      "STATUS":"CONFIRMED",
      "SUMMARY":"Gelber Sack",
      "TRANSP":"TRANSPARENT"
   },
   {
      "DTSTART;VALUE=DATE":"20181114",
      "DTEND;VALUE=DATE":"20181115",
      "DTSTAMP":"20180323T121234Z",
      "UID":"bca86f08da8a582b8ab2061cac21645b",
      "CREATED":"20180101T090000Z",
      "DESCRIPTION":"Graue Tonne nicht vergessen!",
      "LAST-MODIFIED":"20180101T090000Z",
      "LOCATION":"Gutach",
      "SEQUENCE":"0",
      "STATUS":"CONFIRMED",
      "SUMMARY":"Graue Tonne",
      "TRANSP":"TRANSPARENT"
   },
   {
      "DTSTART;VALUE=DATE":"20181128",
      "DTEND;VALUE=DATE":"20181129",
      "DTSTAMP":"20180323T121234Z",
      "UID":"668f367bf7204f4ec0721b380c38f02e",
      "CREATED":"20180101T090000Z",
      "DESCRIPTION":"Gelber Sack nicht vergessen!",
      "LAST-MODIFIED":"20180101T090000Z",
      "LOCATION":"Gutach",
      "SEQUENCE":"0",
      "STATUS":"CONFIRMED",
      "SUMMARY":"Gelber Sack",
      "TRANSP":"TRANSPARENT"
   },
   {
      "DTSTART;VALUE=DATE":"20181128",
      "DTEND;VALUE=DATE":"20181129",
      "DTSTAMP":"20180323T121234Z",
      "UID":"d47c6cc32d66458588f7b9bcfa48013e",
      "CREATED":"20180101T090000Z",
      "DESCRIPTION":"Graue Tonne nicht vergessen!",
      "LAST-MODIFIED":"20180101T090000Z",
      "LOCATION":"Gutach",
      "SEQUENCE":"0",
      "STATUS":"CONFIRMED",
      "SUMMARY":"Graue Tonne",
      "TRANSP":"TRANSPARENT"
   },
   {
      "DTSTART;VALUE=DATE":"20181129",
      "DTEND;VALUE=DATE":"20181130",
      "DTSTAMP":"20180323T121234Z",
      "UID":"853fe3b06a30e21bbcd27a03658f14f3",
      "CREATED":"20180101T090000Z",
      "DESCRIPTION":"Papiertonne nicht vergessen!",
      "LAST-MODIFIED":"20180101T090000Z",
      "LOCATION":"Gutach",
      "SEQUENCE":"0",
      "STATUS":"CONFIRMED",
      "SUMMARY":"Papiertonne",
      "TRANSP":"TRANSPARENT"
   },
   {
      "DTSTART;VALUE=DATE":"20181212",
      "DTEND;VALUE=DATE":"20181213",
      "DTSTAMP":"20180323T121234Z",
      "UID":"6cbeacd4356343b35416f9595a5538aa",
      "CREATED":"20180101T090000Z",
      "DESCRIPTION":"Gelber Sack nicht vergessen!",
      "LAST-MODIFIED":"20180101T090000Z",
      "LOCATION":"Gutach",
      "SEQUENCE":"0",
      "STATUS":"CONFIRMED",
      "SUMMARY":"Gelber Sack",
      "TRANSP":"TRANSPARENT"
   },
   {
      "DTSTART;VALUE=DATE":"20181212",
      "DTEND;VALUE=DATE":"20181213",
      "DTSTAMP":"20180323T121234Z",
      "UID":"8745b838334eb64814901c3f94285fa7",
      "CREATED":"20180101T090000Z",
      "DESCRIPTION":"Graue Tonne nicht vergessen!",
      "LAST-MODIFIED":"20180101T090000Z",
      "LOCATION":"Gutach",
      "SEQUENCE":"0",
      "STATUS":"CONFIRMED",
      "SUMMARY":"Graue Tonne",
      "TRANSP":"TRANSPARENT"
   },
   {
      "DTSTART;VALUE=DATE":"20181227",
      "DTEND;VALUE=DATE":"20181228",
      "DTSTAMP":"20180323T121234Z",
      "UID":"69e8f62d38041141f347e0506883665d",
      "CREATED":"20180101T090000Z",
      "DESCRIPTION":"Gelber Sack nicht vergessen!",
      "LAST-MODIFIED":"20180101T090000Z",
      "LOCATION":"Gutach",
      "SEQUENCE":"0",
      "STATUS":"CONFIRMED",
      "SUMMARY":"Gelber Sack",
      "TRANSP":"TRANSPARENT"
   },
   {
      "DTSTART;VALUE=DATE":"20181228",
      "DTEND;VALUE=DATE":"20181229",
      "DTSTAMP":"20180323T121234Z",
      "UID":"00e98741f5ba875dcffa1adac2b60482",
      "CREATED":"20180101T090000Z",
      "DESCRIPTION":"Graue Tonne nicht vergessen!",
      "LAST-MODIFIED":"20180101T090000Z",
      "LOCATION":"Gutach",
      "SEQUENCE":"0",
      "STATUS":"CONFIRMED",
      "SUMMARY":"Graue Tonne",
      "TRANSP":"TRANSPARENT"
   },
   {
      "DTSTART;VALUE=DATE":"20181228",
      "DTEND;VALUE=DATE":"20181229",
      "DTSTAMP":"20180323T121234Z",
      "UID":"476440030486287179c7a3c18a13a183",
      "CREATED":"20180101T090000Z",
      "DESCRIPTION":"Papiertonne nicht vergessen!",
      "LAST-MODIFIED":"20180101T090000Z",
      "LOCATION":"Gutach",
      "SEQUENCE":"0",
      "STATUS":"CONFIRMED",
      "SUMMARY":"Papiertonne",
      "TRANSP":"TRANSPARENT"
   }
]