[
   {
      "DTSTART;VALUE=DATE":"20180102",
      "DTEND;VALUE=DATE":"20180103",
      "DTSTAMP":"20180322T111107Z",
      "UID":"c0ef0413d6ac76467822e4f2d54d5ce4",
      "CREATED":"20180101T090000Z",
      "DESCRIPTION":"Graue Tonne nicht vergessen!",
      "LAST-MODIFIED":"20180101T090000Z",
      "LOCATION":"Winden",
      "SEQUENCE":"0",
      "STATUS":"CONFIRMED",
      "SUMMARY":"Graue Tonne",
      "TRANSP":"TRANSPARENT"
   },
   {
      "DTSTART;VALUE=DATE":"20180104",
      "DTEND;VALUE=DATE":"20180105",
      "DTSTAMP":"20180322T111107Z",
      "UID":"27653ee612d7a198f5724df49e26483f",
      "CREATED":"20180101T090000Z",
      "DESCRIPTION":"Gelber Sack nicht vergessen!",
      "LAST-MODIFIED":"20180101T090000Z",
      "LOCATION":"Winden",
      "SEQUENCE":"0",
      "STATUS":"CONFIRMED",
      "SUMMARY":"Gelber Sack",
      "TRANSP":"TRANSPARENT"
   },
   {
      "DTSTART;VALUE=DATE":"20180115",
      "DTEND;VALUE=DATE":"20180116",
      "DTSTAMP":"20180322T111107Z",
      "UID":"7d2b0fad39b1c655bcb1431041c4fc79",
      "CREATED":"20180101T090000Z",
      "DESCRIPTION":"Graue Tonne nicht vergessen!",
      "LAST-MODIFIED":"20180101T090000Z",
      "LOCATION":"Winden",
      "SEQUENCE":"0",
      "STATUS":"CONFIRMED",
      "SUMMARY":"Graue Tonne",
      "TRANSP":"TRANSPARENT"
   },
   {
      "DTSTART;VALUE=DATE":"20180118",
      "DTEND;VALUE=DATE":"20180119",
      "DTSTAMP":"20180322T111107Z",
      "UID":"b077bdcf0ae9985b806c535e02d8c9cd",
      "CREATED":"20180101T090000Z",
      "DESCRIPTION":"Gelber Sack nicht vergessen!",
      "LAST-MODIFIED":"20180101T090000Z",
      "LOCATION":"Winden",
      "SEQUENCE":"0",
      "STATUS":"CONFIRMED",
      "SUMMARY":"Gelber Sack",
      "TRANSP":"TRANSPARENT"
   },
   {
      "DTSTART;VALUE=DATE":"20180125",
      "DTEND;VALUE=DATE":"20180126",
      "DTSTAMP":"20180322T111107Z",
      "UID":"55deb116a870e36111becd7dee05c858",
      "CREATED":"20180101T090000Z",
      "DESCRIPTION":"Papiertonne nicht vergessen!",
      "LAST-MODIFIED":"20180101T090000Z",
      "LOCATION":"Winden",
      "SEQUENCE":"0",
      "STATUS":"CONFIRMED",
      "SUMMARY":"Papiertonne",
      "TRANSP":"TRANSPARENT"
   },
   {
      "DTSTART;VALUE=DATE":"20180129",
      "DTEND;VALUE=DATE":"20180130",
      "DTSTAMP":"20180322T111107Z",
      "UID":"eb7260d2434083dcc160dc3d08bb12f9",
      "CREATED":"20180101T090000Z",
      "DESCRIPTION":"Graue Tonne nicht vergessen!",
      "LAST-MODIFIED":"20180101T090000Z",
      "LOCATION":"Winden",
      "SEQUENCE":"0",
      "STATUS":"CONFIRMED",
      "SUMMARY":"Graue Tonne",
      "TRANSP":"TRANSPARENT"
   },
   {
      "DTSTART;VALUE=DATE":"20180201",
      "DTEND;VALUE=DATE":"20180202",
      "DTSTAMP":"20180322T111107Z",
      "UID":"d0dd9af62fedc566e920fd023d012ed3",
      "CREATED":"20180101T090000Z",
      "DESCRIPTION":"Gelber Sack nicht vergessen!",
      "LAST-MODIFIED":"20180101T090000Z",
      "LOCATION":"Winden",
      "SEQUENCE":"0",
      "STATUS":"CONFIRMED",
      "SUMMARY":"Gelber Sack",
      "TRANSP":"TRANSPARENT"
   },
   {
      "DTSTART;VALUE=DATE":"20180213",
      "DTEND;VALUE=DATE":"20180214",
      "DTSTAMP":"20180322T111107Z",
      "UID":"4bf7e884979bf0becc5c64f8b9a74b96",
      "CREATED":"20180101T090000Z",
      "DESCRIPTION":"Graue Tonne nicht vergessen!",
      "LAST-MODIFIED":"20180101T090000Z",
      "LOCATION":"Winden",
      "SEQUENCE":"0",
      "STATUS":"CONFIRMED",
      "SUMMARY":"Graue Tonne",
      "TRANSP":"TRANSPARENT"
   },
   {
      "DTSTART;VALUE=DATE":"20180216",
      "DTEND;VALUE=DATE":"20180217",
      "DTSTAMP":"20180322T111107Z",
      "UID":"7a46d2ac86035bdabf8baeb363787f68",
      "CREATED":"20180101T090000Z",
      "DESCRIPTION":"Gelber Sack nicht vergessen!",
      "LAST-MODIFIED":"20180101T090000Z",
      "LOCATION":"Winden",
      "SEQUENCE":"0",
      "STATUS":"CONFIRMED",
      "SUMMARY":"Gelber Sack",
      "TRANSP":"TRANSPARENT"
   },
   {
      "DTSTART;VALUE=DATE":"20180222",
      "DTEND;VALUE=DATE":"20180223",
      "DTSTAMP":"20180322T111107Z",
      "UID":"6fdbf31a9171516cab3bf8bdcf9dd485",
      "CREATED":"20180101T090000Z",
      "DESCRIPTION":"Papiertonne nicht vergessen!",
      "LAST-MODIFIED":"20180101T090000Z",
      "LOCATION":"Winden",
      "SEQUENCE":"0",
      "STATUS":"CONFIRMED",
      "SUMMARY":"Papiertonne",
      "TRANSP":"TRANSPARENT"
   },
   {
      "DTSTART;VALUE=DATE":"20180226",
      "DTEND;VALUE=DATE":"20180227",
      "DTSTAMP":"20180322T111107Z",
      "UID":"86011315dc0f56039a287cc04ff801f3",
      "CREATED":"20180101T090000Z",
      "DESCRIPTION":"Graue Tonne nicht vergessen!",
      "LAST-MODIFIED":"20180101T090000Z",
      "LOCATION":"Winden",
      "SEQUENCE":"0",
      "STATUS":"CONFIRMED",
      "SUMMARY":"Graue Tonne",
      "TRANSP":"TRANSPARENT"
   },
   {
      "DTSTART;VALUE=DATE":"20180301",
      "DTEND;VALUE=DATE":"20180302",
      "DTSTAMP":"20180322T111107Z",
      "UID":"dac4b24541f6853e6bd2b7938d738cde",
      "CREATED":"20180101T090000Z",
      "DESCRIPTION":"Gelber Sack nicht vergessen!",
      "LAST-MODIFIED":"20180101T090000Z",
      "LOCATION":"Winden",
      "SEQUENCE":"0",
      "STATUS":"CONFIRMED",
      "SUMMARY":"Gelber Sack",
      "TRANSP":"TRANSPARENT"
   },
   {
      "DTSTART;VALUE=DATE":"20180312",
      "DTEND;VALUE=DATE":"20180313",
      "DTSTAMP":"20180322T111107Z",
      "UID":"2dc5a1d21eca4713516fdafaa24857ff",
      "CREATED":"20180101T090000Z",
      "DESCRIPTION":"Graue Tonne nicht vergessen!",
      "LAST-MODIFIED":"20180101T090000Z",
      "LOCATION":"Winden",
      "SEQUENCE":"0",
      "STATUS":"CONFIRMED",
      "SUMMARY":"Graue Tonne",
      "TRANSP":"TRANSPARENT"
   },
   {
      "DTSTART;VALUE=DATE":"20180315",
      "DTEND;VALUE=DATE":"20180316",
      "DTSTAMP":"20180322T111107Z",
      "UID":"1511d1878feb0a01483684b0027871a4",
      "CREATED":"20180101T090000Z",
      "DESCRIPTION":"Gelber Sack nicht vergessen!",
      "LAST-MODIFIED":"20180101T090000Z",
      "LOCATION":"Winden",
      "SEQUENCE":"0",
      "STATUS":"CONFIRMED",
      "SUMMARY":"Gelber Sack",
      "TRANSP":"TRANSPARENT"
   },
   {
      "DTSTART;VALUE=DATE":"20180322",
      "DTEND;VALUE=DATE":"20180323",
      "DTSTAMP":"20180322T111107Z",
      "UID":"41f168929b55fa29249bb97d1292b19b",
      "CREATED":"20180101T090000Z",
      "DESCRIPTION":"Papiertonne nicht vergessen!",
      "LAST-MODIFIED":"20180101T090000Z",
      "LOCATION":"Winden",
      "SEQUENCE":"0",
      "STATUS":"CONFIRMED",
      "SUMMARY":"Papiertonne",
      "TRANSP":"TRANSPARENT"
   },
   {
      "DTSTART;VALUE=DATE":"20180326",
      "DTEND;VALUE=DATE":"20180327",
      "DTSTAMP":"20180322T111107Z",
      "UID":"03dfd2116d8c239937dbe7bfc8a25429",
      "CREATED":"20180101T090000Z",
      "DESCRIPTION":"Graue Tonne nicht vergessen!",
      "LAST-MODIFIED":"20180101T090000Z",
      "LOCATION":"Winden",
      "SEQUENCE":"0",
      "STATUS":"CONFIRMED",
      "SUMMARY":"Graue Tonne",
      "TRANSP":"TRANSPARENT"
   },
   {
      "DTSTART;VALUE=DATE":"20180329",
      "DTEND;VALUE=DATE":"20180330",
      "DTSTAMP":"20180322T111107Z",
      "UID":"4821a0994cc19d191811306b6d54af24",
      "CREATED":"20180101T090000Z",
      "DESCRIPTION":"Gelber Sack nicht vergessen!",
      "LAST-MODIFIED":"20180101T090000Z",
      "LOCATION":"Winden",
      "SEQUENCE":"0",
      "STATUS":"CONFIRMED",
      "SUMMARY":"Gelber Sack",
      "TRANSP":"TRANSPARENT"
   },
   {
      "DTSTART;VALUE=DATE":"20180409",
      "DTEND;VALUE=DATE":"20180410",
      "DTSTAMP":"20180322T111107Z",
      "UID":"7b36025ebd99ad2650e8bfea8fcddbd7",
      "CREATED":"20180101T090000Z",
      "DESCRIPTION":"Graue Tonne nicht vergessen!",
      "LAST-MODIFIED":"20180101T090000Z",
      "LOCATION":"Winden",
      "SEQUENCE":"0",
      "STATUS":"CONFIRMED",
      "SUMMARY":"Graue Tonne",
      "TRANSP":"TRANSPARENT"
   },
   {
      "DTSTART;VALUE=DATE":"20180412",
      "DTEND;VALUE=DATE":"20180413",
      "DTSTAMP":"20180322T111107Z",
      "UID":"f8835cb7f5696461c9d0883670b69689",
      "CREATED":"20180101T090000Z",
      "DESCRIPTION":"Gelber Sack nicht vergessen!",
      "LAST-MODIFIED":"20180101T090000Z",
      "LOCATION":"Winden",
      "SEQUENCE":"0",
      "STATUS":"CONFIRMED",
      "SUMMARY":"Gelber Sack",
      "TRANSP":"TRANSPARENT"
   },
   {
      "DTSTART;VALUE=DATE":"20180419",
      "DTEND;VALUE=DATE":"20180420",
      "DTSTAMP":"20180322T111107Z",
      "UID":"40bbb2811bcbe57c94d76c829edea97e",
      "CREATED":"20180101T090000Z",
      "DESCRIPTION":"Papiertonne nicht vergessen!",
      "LAST-MODIFIED":"20180101T090000Z",
      "LOCATION":"Winden",
      "SEQUENCE":"0",
      "STATUS":"CONFIRMED",
      "SUMMARY":"Papiertonne",
      "TRANSP":"TRANSPARENT"
   },
   {
      "DTSTART;VALUE=DATE":"20180423",
      "DTEND;VALUE=DATE":"20180424",
      "DTSTAMP":"20180322T111107Z",
      "UID":"bd301098282370e822e15e55974616ec",
      "CREATED":"20180101T090000Z",
      "DESCRIPTION":"Graue Tonne nicht vergessen!",
      "LAST-MODIFIED":"20180101T090000Z",
      "LOCATION":"Winden",
      "SEQUENCE":"0",
      "STATUS":"CONFIRMED",
      "SUMMARY":"Graue Tonne",
      "TRANSP":"TRANSPARENT"
   },
   {
      "DTSTART;VALUE=DATE":"20180426",
      "DTEND;VALUE=DATE":"20180427",
      "DTSTAMP":"20180322T111107Z",
      "UID":"a4160b95cc9f7ab83c4b210f67d550b8",
      "CREATED":"20180101T090000Z",
      "DESCRIPTION":"Gelber Sack nicht vergessen!",
      "LAST-MODIFIED":"20180101T090000Z",
      "LOCATION":"Winden",
      "SEQUENCE":"0",
      "STATUS":"CONFIRMED",
      "SUMMARY":"Gelber Sack",
      "TRANSP":"TRANSPARENT"
   },
   {
      "DTSTART;VALUE=DATE":"20180507",
      "DTEND;VALUE=DATE":"20180508",
      "DTSTAMP":"20180322T111107Z",
      "UID":"6ce97f6783f285f6b11f7c7379c770fa",
      "CREATED":"20180101T090000Z",
      "DESCRIPTION":"Graue Tonne nicht vergessen!",
      "LAST-MODIFIED":"20180101T090000Z",
      "LOCATION":"Winden",
      "SEQUENCE":"0",
      "STATUS":"CONFIRMED",
      "SUMMARY":"Graue Tonne",
      "TRANSP":"TRANSPARENT"
   },
   {
      "DTSTART;VALUE=DATE":"20180511",
      "DTEND;VALUE=DATE":"20180512",
      "DTSTAMP":"20180322T111107Z",
      "UID":"11512cd1a8eb7286c7522b4ffb83f6d1",
      "CREATED":"20180101T090000Z",
      "DESCRIPTION":"Gelber Sack nicht vergessen!",
      "LAST-MODIFIED":"20180101T090000Z",
      "LOCATION":"Winden",
      "SEQUENCE":"0",
      "STATUS":"CONFIRMED",
      "SUMMARY":"Gelber Sack",
      "TRANSP":"TRANSPARENT"
   },
   {
      "DTSTART;VALUE=DATE":"20180517",
      "DTEND;VALUE=DATE":"20180518",
      "DTSTAMP":"20180322T111107Z",
      "UID":"a1ae313c9958049b9cd2071a0124d87f",
      "CREATED":"20180101T090000Z",
      "DESCRIPTION":"Papiertonne nicht vergessen!",
      "LAST-MODIFIED":"20180101T090000Z",
      "LOCATION":"Winden",
      "SEQUENCE":"0",
      "STATUS":"CONFIRMED",
      "SUMMARY":"Papiertonne",
      "TRANSP":"TRANSPARENT"
   },
   {
      "DTSTART;VALUE=DATE":"20180522",
      "DTEND;VALUE=DATE":"20180523",
      "DTSTAMP":"20180322T111107Z",
      "UID":"4b3a2a2a50b9357c24885943759ac98f",
      "CREATED":"20180101T090000Z",
      "DESCRIPTION":"Graue Tonne nicht vergessen!",
      "LAST-MODIFIED":"20180101T090000Z",
      "LOCATION":"Winden",
      "SEQUENCE":"0",
      "STATUS":"CONFIRMED",
      "SUMMARY":"Graue Tonne",
      "TRANSP":"TRANSPARENT"
   },
   {
      "DTSTART;VALUE=DATE":"20180525",
      "DTEND;VALUE=DATE":"20180526",
      "DTSTAMP":"20180322T111107Z",
      "UID":"46be8e2531ed961bf43c2a6f96e6fae9",
      "CREATED":"20180101T090000Z",
      "DESCRIPTION":"Gelber Sack nicht vergessen!",
      "LAST-MODIFIED":"20180101T090000Z",
      "LOCATION":"Winden",
      "SEQUENCE":"0",
      "STATUS":"CONFIRMED",
      "SUMMARY":"Gelber Sack",
      "TRANSP":"TRANSPARENT"
   },
   {
      "DTSTART;VALUE=DATE":"20180604",
      "DTEND;VALUE=DATE":"20180605",
      "DTSTAMP":"20180322T111107Z",
      "UID":"df207ebd17b5c13eaccf21e2ed9ea950",
      "CREATED":"20180101T090000Z",
      "DESCRIPTION":"Graue Tonne nicht vergessen!",
      "LAST-MODIFIED":"20180101T090000Z",
      "LOCATION":"Winden",
      "SEQUENCE":"0",
      "STATUS":"CONFIRMED",
      "SUMMARY":"Graue Tonne",
      "TRANSP":"TRANSPARENT"
   },
   {
      "DTSTART;VALUE=DATE":"20180607",
      "DTEND;VALUE=DATE":"20180608",
      "DTSTAMP":"20180322T111107Z",
      "UID":"c8ff315fc3e9adff149972797ef22ba2",
      "CREATED":"20180101T090000Z",
      "DESCRIPTION":"Gelber Sack nicht vergessen!",
      "LAST-MODIFIED":"20180101T090000Z",
      "LOCATION":"Winden",
      "SEQUENCE":"0",
      "STATUS":"CONFIRMED",
      "SUMMARY":"Gelber Sack",
      "TRANSP":"TRANSPARENT"
   },
   {
      "DTSTART;VALUE=DATE":"20180614",
      "DTEND;VALUE=DATE":"20180615",
      "DTSTAMP":"20180322T111107Z",
      "UID":"cc5e5151e69f6e11e69321891dcd51a9",
      "CREATED":"20180101T090000Z",
      "DESCRIPTION":"Papiertonne nicht vergessen!",
      "LAST-MODIFIED":"20180101T090000Z",
      "LOCATION":"Winden",
      "SEQUENCE":"0",
      "STATUS":"CONFIRMED",
      "SUMMARY":"Papiertonne",
      "TRANSP":"TRANSPARENT"
   },
   {
      "DTSTART;VALUE=DATE":"20180618",
      "DTEND;VALUE=DATE":"20180619",
      "DTSTAMP":"20180322T111107Z",
      "UID":"cd986f757f8681bc730ffb906e65a419",
      "CREATED":"20180101T090000Z",
      "DESCRIPTION":"Graue Tonne nicht vergessen!",
      "LAST-MODIFIED":"20180101T090000Z",
      "LOCATION":"Winden",
      "SEQUENCE":"0",
      "STATUS":"CONFIRMED",
      "SUMMARY":"Graue Tonne",
      "TRANSP":"TRANSPARENT"
   },
   {
      "DTSTART;VALUE=DATE":"20180621",
      "DTEND;VALUE=DATE":"20180622",
      "DTSTAMP":"20180322T111107Z",
      "UID":"2bffb8384cb566de70b972808caef4bc",
      "CREATED":"20180101T090000Z",
      "DESCRIPTION":"Gelber Sack nicht vergessen!",
      "LAST-MODIFIED":"20180101T090000Z",
      "LOCATION":"Winden",
      "SEQUENCE":"0",
      "STATUS":"CONFIRMED",
      "SUMMARY":"Gelber Sack",
      "TRANSP":"TRANSPARENT"
   },
   {
      "DTSTART;VALUE=DATE":"20180702",
      "DTEND;VALUE=DATE":"20180703",
      "DTSTAMP":"20180322T111107Z",
      "UID":"bfb8a846023799c50fc15082395b58bc",
      "CREATED":"20180101T090000Z",
      "DESCRIPTION":"Graue Tonne nicht vergessen!",
      "LAST-MODIFIED":"20180101T090000Z",
      "LOCATION":"Winden",
      "SEQUENCE":"0",
      "STATUS":"CONFIRMED",
      "SUMMARY":"Graue Tonne",
      "TRANSP":"TRANSPARENT"
   },
   {
      "DTSTART;VALUE=DATE":"20180705",
      "DTEND;VALUE=DATE":"20180706",
      "DTSTAMP":"20180322T111107Z",
      "UID":"d7d06f0f03c2e5b99c07356f20b96f02",
      "CREATED":"20180101T090000Z",
      "DESCRIPTION":"Gelber Sack nicht vergessen!",
      "LAST-MODIFIED":"20180101T090000Z",
      "LOCATION":"Winden",
      "SEQUENCE":"0",
      "STATUS":"CONFIRMED",
      "SUMMARY":"Gelber Sack",
      "TRANSP":"TRANSPARENT"
   },
   {
      "DTSTART;VALUE=DATE":"20180709",
      "DTEND;VALUE=DATE":"20180710",
      "DTSTAMP":"20180322T111107Z",
      "UID":"66bf0bde24c6f7b8afa9155da98a1ae4",
      "CREATED":"20180101T090000Z",
      "DESCRIPTION":"Graue Tonne nicht vergessen!",
      "LAST-MODIFIED":"20180101T090000Z",
      "LOCATION":"Winden",
      "SEQUENCE":"0",
      "STATUS":"CONFIRMED",
      "SUMMARY":"Graue Tonne",
      "TRANSP":"TRANSPARENT"
   },
   {
      "DTSTART;VALUE=DATE":"20180712",
      "DTEND;VALUE=DATE":"20180713",
      "DTSTAMP":"20180322T111107Z",
      "UID":"36fe050461833d01e23da12f79889d47",
      "CREATED":"20180101T090000Z",
      "DESCRIPTION":"Papiertonne nicht vergessen!",
      "LAST-MODIFIED":"20180101T090000Z",
      "LOCATION":"Winden",
      "SEQUENCE":"0",
      "STATUS":"CONFIRMED",
      "SUMMARY":"Papiertonne",
      "TRANSP":"TRANSPARENT"
   },
   {
      "DTSTART;VALUE=DATE":"20180716",
      "DTEND;VALUE=DATE":"20180717",
      "DTSTAMP":"20180322T111107Z",
      "UID":"55250b53ef6641e5ec28823b309383de",
      "CREATED":"20180101T090000Z",
      "DESCRIPTION":"Graue Tonne nicht vergessen!",
      "LAST-MODIFIED":"20180101T090000Z",
      "LOCATION":"Winden",
      "SEQUENCE":"0",
      "STATUS":"CONFIRMED",
      "SUMMARY":"Graue Tonne",
      "TRANSP":"TRANSPARENT"
   },
   {
      "DTSTART;VALUE=DATE":"20180719",
      "DTEND;VALUE=DATE":"20180720",
      "DTSTAMP":"20180322T111107Z",
      "UID":"907f562bb3a3bce1a5374aa14ac27e6a",
      "CREATED":"20180101T090000Z",
      "DESCRIPTION":"Gelber Sack nicht vergessen!",
      "LAST-MODIFIED":"20180101T090000Z",
      "LOCATION":"Winden",
      "SEQUENCE":"0",
      "STATUS":"CONFIRMED",
      "SUMMARY":"Gelber Sack",
      "TRANSP":"TRANSPARENT"
   },
   {
      "DTSTART;VALUE=DATE":"20180723",
      "DTEND;VALUE=DATE":"20180724",
      "DTSTAMP":"20180322T111107Z",
      "UID":"74b682bf2a0fb86b1036410182ea1045",
      "CREATED":"20180101T090000Z",
      "DESCRIPTION":"Graue Tonne nicht vergessen!",
      "LAST-MODIFIED":"20180101T090000Z",
      "LOCATION":"Winden",
      "SEQUENCE":"0",
      "STATUS":"CONFIRMED",
      "SUMMARY":"Graue Tonne",
      "TRANSP":"TRANSPARENT"
   },
   {
      "DTSTART;VALUE=DATE":"20180730",
      "DTEND;VALUE=DATE":"20180731",
      "DTSTAMP":"20180322T111107Z",
      "UID":"c3bfd47f2424204abea3e1d47b5c0745",
      "CREATED":"20180101T090000Z",
      "DESCRIPTION":"Graue Tonne nicht vergessen!",
      "LAST-MODIFIED":"20180101T090000Z",
      "LOCATION":"Winden",
      "SEQUENCE":"0",
      "STATUS":"CONFIRMED",
      "SUMMARY":"Graue Tonne",
      "TRANSP":"TRANSPARENT"
   },
   {
      "DTSTART;VALUE=DATE":"20180802",
      "DTEND;VALUE=DATE":"20180803",
      "DTSTAMP":"20180322T111107Z",
      "UID":"dc5054fc93997d34ebb1eee292483f3a",
      "CREATED":"20180101T090000Z",
      "DESCRIPTION":"Gelber Sack nicht vergessen!",
      "LAST-MODIFIED":"20180101T090000Z",
      "LOCATION":"Winden",
      "SEQUENCE":"0",
      "STATUS":"CONFIRMED",
      "SUMMARY":"Gelber Sack",
      "TRANSP":"TRANSPARENT"
   },
   {
      "DTSTART;VALUE=DATE":"20180806",
      "DTEND;VALUE=DATE":"20180807",
      "DTSTAMP":"20180322T111107Z",
      "UID":"ca116ee91cb1513f6b0f1d36ae9058b0",
      "CREATED":"20180101T090000Z",
      "DESCRIPTION":"Graue Tonne nicht vergessen!",
      "LAST-MODIFIED":"20180101T090000Z",
      "LOCATION":"Winden",
      "SEQUENCE":"0",
      "STATUS":"CONFIRMED",
      "SUMMARY":"Graue Tonne",
      "TRANSP":"TRANSPARENT"
   },
   {
      "DTSTART;VALUE=DATE":"20180809",
      "DTEND;VALUE=DATE":"20180810",
      "DTSTAMP":"20180322T111107Z",
      "UID":"849e4353ef4ae2ec71c10c62702ab21c",
      "CREATED":"20180101T090000Z",
      "DESCRIPTION":"Papiertonne nicht vergessen!",
      "LAST-MODIFIED":"20180101T090000Z",
      "LOCATION":"Winden",
      "SEQUENCE":"0",
      "STATUS":"CONFIRMED",
      "SUMMARY":"Papiertonne",
      "TRANSP":"TRANSPARENT"
   },
   {
      "DTSTART;VALUE=DATE":"20180813",
      "DTEND;VALUE=DATE":"20180814",
      "DTSTAMP":"20180322T111107Z",
      "UID":"d0e1521f1c502400028eb5216e6e08ec",
      "CREATED":"20180101T090000Z",
      "DESCRIPTION":"Graue Tonne nicht vergessen!",
      "LAST-MODIFIED":"20180101T090000Z",
      "LOCATION":"Winden",
      "SEQUENCE":"0",
      "STATUS":"CONFIRMED",
      "SUMMARY":"Graue Tonne",
      "TRANSP":"TRANSPARENT"
   },
   {
      "DTSTART;VALUE=DATE":"20180816",
      "DTEND;VALUE=DATE":"20180817",
      "DTSTAMP":"20180322T111107Z",
      "UID":"8a4965507276e96bb0ee41794c1c1fd7",
      "CREATED":"20180101T090000Z",
      "DESCRIPTION":"Gelber Sack nicht vergessen!",
      "LAST-MODIFIED":"20180101T090000Z",
      "LOCATION":"Winden",
      "SEQUENCE":"0",
      "STATUS":"CONFIRMED",
      "SUMMARY":"Gelber Sack",
      "TRANSP":"TRANSPARENT"
   },
   {
      "DTSTART;VALUE=DATE":"20180820",
      "DTEND;VALUE=DATE":"20180821",
      "DTSTAMP":"20180322T111107Z",
      "UID":"1e77daf614182fa08d91c3a36938b3e5",
      "CREATED":"20180101T090000Z",
      "DESCRIPTION":"Graue Tonne nicht vergessen!",
      "LAST-MODIFIED":"20180101T090000Z",
      "LOCATION":"Winden",
      "SEQUENCE":"0",
      "STATUS":"CONFIRMED",
      "SUMMARY":"Graue Tonne",
      "TRANSP":"TRANSPARENT"
   },
   {
      "DTSTART;VALUE=DATE":"20180827",
      "DTEND;VALUE=DATE":"20180828",
      "DTSTAMP":"20180322T111107Z",
      "UID":"94c29654a1ac0e6c201f213282f4d2ae",
      "CREATED":"20180101T090000Z",
      "DESCRIPTION":"Graue Tonne nicht vergessen!",
      "LAST-MODIFIED":"20180101T090000Z",
      "LOCATION":"Winden",
      "SEQUENCE":"0",
      "STATUS":"CONFIRMED",
      "SUMMARY":"Graue Tonne",
      "TRANSP":"TRANSPARENT"
   },
   {
      "DTSTART;VALUE=DATE":"20180830",
      "DTEND;VALUE=DATE":"20180831",
      "DTSTAMP":"20180322T111107Z",
      "UID":"a03156d1fd86b2db0b112bca1901c11e",
      "CREATED":"20180101T090000Z",
      "DESCRIPTION":"Gelber Sack nicht vergessen!",
      "LAST-MODIFIED":"20180101T090000Z",
      "LOCATION":"Winden",
      "SEQUENCE":"0",
      "STATUS":"CONFIRMED",
      "SUMMARY":"Gelber Sack",
      "TRANSP":"TRANSPARENT"
   },
   {
      "DTSTART;VALUE=DATE":"20180906",
      "DTEND;VALUE=DATE":"20180907",
      "DTSTAMP":"20180322T111107Z",
      "UID":"7ab9f67d37b61055da540e8ad04f44e8",
      "CREATED":"20180101T090000Z",
      "DESCRIPTION":"Papiertonne nicht vergessen!",
      "LAST-MODIFIED":"20180101T090000Z",
      "LOCATION":"Winden",
      "SEQUENCE":"0",
      "STATUS":"CONFIRMED",
      "SUMMARY":"Papiertonne",
      "TRANSP":"TRANSPARENT"
   },
   {
      "DTSTART;VALUE=DATE":"20180910",
      "DTEND;VALUE=DATE":"20180911",
      "DTSTAMP":"20180322T111107Z",
      "UID":"086ca5c906e711cbf9d2a6e02053cb82",
      "CREATED":"20180101T090000Z",
      "DESCRIPTION":"Graue Tonne nicht vergessen!",
      "LAST-MODIFIED":"20180101T090000Z",
      "LOCATION":"Winden",
      "SEQUENCE":"0",
      "STATUS":"CONFIRMED",
      "SUMMARY":"Graue Tonne",
      "TRANSP":"TRANSPARENT"
   },
   {
      "DTSTART;VALUE=DATE":"20180913",
      "DTEND;VALUE=DATE":"20180914",
      "DTSTAMP":"20180322T111107Z",
      "UID":"bb05e0a90afea80d221c637215abaf19",
      "CREATED":"20180101T090000Z",
      "DESCRIPTION":"Gelber Sack nicht vergessen!",
      "LAST-MODIFIED":"20180101T090000Z",
      "LOCATION":"Winden",
      "SEQUENCE":"0",
      "STATUS":"CONFIRMED",
      "SUMMARY":"Gelber Sack",
      "TRANSP":"TRANSPARENT"
   },
   {
      "DTSTART;VALUE=DATE":"20180924",
      "DTEND;VALUE=DATE":"20180925",
      "DTSTAMP":"20180322T111107Z",
      "UID":"3822d77bcd7fb6a9dc5fc01cf10f431f",
      "CREATED":"20180101T090000Z",
      "DESCRIPTION":"Graue Tonne nicht vergessen!",
      "LAST-MODIFIED":"20180101T090000Z",
      "LOCATION":"Winden",
      "SEQUENCE":"0",
      "STATUS":"CONFIRMED",
      "SUMMARY":"Graue Tonne",
      "TRANSP":"TRANSPARENT"
   },
   {
      "DTSTART;VALUE=DATE":"20180927",
      "DTEND;VALUE=DATE":"20180928",
      "DTSTAMP":"20180322T111107Z",
      "UID":"4f445eebfa77afce1970c9bc1340f0e4",
      "CREATED":"20180101T090000Z",
      "DESCRIPTION":"Gelber Sack nicht vergessen!",
      "LAST-MODIFIED":"20180101T090000Z",
      "LOCATION":"Winden",
      "SEQUENCE":"0",
      "STATUS":"CONFIRMED",
      "SUMMARY":"Gelber Sack",
      "TRANSP":"TRANSPARENT"
   },
   {
      "DTSTART;VALUE=DATE":"20181005",
      "DTEND;VALUE=DATE":"20181006",
      "DTSTAMP":"20180322T111107Z",
      "UID":"16a303dcb941e117e065b50fbe784315",
      "CREATED":"20180101T090000Z",
      "DESCRIPTION":"Papiertonne nicht vergessen!",
      "LAST-MODIFIED":"20180101T090000Z",
      "LOCATION":"Winden",
      "SEQUENCE":"0",
      "STATUS":"CONFIRMED",
      "SUMMARY":"Papiertonne",
      "TRANSP":"TRANSPARENT"
   },
   {
      "DTSTART;VALUE=DATE":"20181008",
      "DTEND;VALUE=DATE":"20181009",
      "DTSTAMP":"20180322T111107Z",
      "UID":"ff41e3439b3a0442c9574f657c40c0e9",
      "CREATED":"20180101T090000Z",
      "DESCRIPTION":"Graue Tonne nicht vergessen!",
      "LAST-MODIFIED":"20180101T090000Z",
      "LOCATION":"Winden",
      "SEQUENCE":"0",
      "STATUS":"CONFIRMED",
      "SUMMARY":"Graue Tonne",
      "TRANSP":"TRANSPARENT"
   },
   {
      "DTSTART;VALUE=DATE":"20181011",
      "DTEND;VALUE=DATE":"20181012",
      "DTSTAMP":"20180322T111107Z",
      "UID":"fd81913de0aee2ac508341b99108c746",
      "CREATED":"20180101T090000Z",
      "DESCRIPTION":"Gelber Sack nicht vergessen!",
      "LAST-MODIFIED":"20180101T090000Z",
      "LOCATION":"Winden",
      "SEQUENCE":"0",
      "STATUS":"CONFIRMED",
      "SUMMARY":"Gelber Sack",
      "TRANSP":"TRANSPARENT"
   },
   {
      "DTSTART;VALUE=DATE":"20181022",
      "DTEND;VALUE=DATE":"20181023",
      "DTSTAMP":"20180322T111107Z",
      "UID":"419586ec0071b00b10234ec9ff5d120c",
      "CREATED":"20180101T090000Z",
      "DESCRIPTION":"Graue Tonne nicht vergessen!",
      "LAST-MODIFIED":"20180101T090000Z",
      "LOCATION":"Winden",
      "SEQUENCE":"0",
      "STATUS":"CONFIRMED",
      "SUMMARY":"Graue Tonne",
      "TRANSP":"TRANSPARENT"
   },
   {
      "DTSTART;VALUE=DATE":"20181025",
      "DTEND;VALUE=DATE":"20181026",
      "DTSTAMP":"20180322T111107Z",
      "UID":"75942426e7217eea6c5f06ffbde238e5",
      "CREATED":"20180101T090000Z",
      "DESCRIPTION":"Gelber Sack nicht vergessen!",
      "LAST-MODIFIED":"20180101T090000Z",
      "LOCATION":"Winden",
      "SEQUENCE":"0",
      "STATUS":"CONFIRMED",
      "SUMMARY":"Gelber Sack",
      "TRANSP":"TRANSPARENT"
   },
   {
      "DTSTART;VALUE=DATE":"20181102",
      "DTEND;VALUE=DATE":"20181103",
      "DTSTAMP":"20180322T111107Z",
      "UID":"432ce6a97ac2c42cb6dd5c6c2025bf25",
      "CREATED":"20180101T090000Z",
      "DESCRIPTION":"Papiertonne nicht vergessen!",
      "LAST-MODIFIED":"20180101T090000Z",
      "LOCATION":"Winden",
      "SEQUENCE":"0",
      "STATUS":"CONFIRMED",
      "SUMMARY":"Papiertonne",
      "TRANSP":"TRANSPARENT"
   },
   {
      "DTSTART;VALUE=DATE":"20181105",
      "DTEND;VALUE=DATE":"20181106",
      "DTSTAMP":"20180322T111107Z",
      "UID":"76829d26bff5a8a71581440473b684ac",
      "CREATED":"20180101T090000Z",
      "DESCRIPTION":"Graue Tonne nicht vergessen!",
      "LAST-MODIFIED":"20180101T090000Z",
      "LOCATION":"Winden",
      "SEQUENCE":"0",
      "STATUS":"CONFIRMED",
      "SUMMARY":"Graue Tonne",
      "TRANSP":"TRANSPARENT"
   },
   {
      "DTSTART;VALUE=DATE":"20181108",
      "DTEND;VALUE=DATE":"20181109",
      "DTSTAMP":"20180322T111107Z",
      "UID":"960c4dcd14b3aac85d5e58403d5abd00",
      "CREATED":"20180101T090000Z",
      "DESCRIPTION":"Gelber Sack nicht vergessen!",
      "LAST-MODIFIED":"20180101T090000Z",
      "LOCATION":"Winden",
      "SEQUENCE":"0",
      "STATUS":"CONFIRMED",
      "SUMMARY":"Gelber Sack",
      "TRANSP":"TRANSPARENT"
   },
   {
      "DTSTART;VALUE=DATE":"20181119",
      "DTEND;VALUE=DATE":"20181120",
      "DTSTAMP":"20180322T111107Z",
      "UID":"31879b63edf290c08015f3623f3edd2f",
      "CREATED":"20180101T090000Z",
      "DESCRIPTION":"Graue Tonne nicht vergessen!",
      "LAST-MODIFIED":"20180101T090000Z",
      "LOCATION":"Winden",
      "SEQUENCE":"0",
      "STATUS":"CONFIRMED",
      "SUMMARY":"Graue Tonne",
      "TRANSP":"TRANSPARENT"
   },
   {
      "DTSTART;VALUE=DATE":"20181122",
      "DTEND;VALUE=DATE":"20181123",
      "DTSTAMP":"20180322T111107Z",
      "UID":"16913f4d85b9266bdb5f81fb8885498b",
      "CREATED":"20180101T090000Z",
      "DESCRIPTION":"Gelber Sack nicht vergessen!",
      "LAST-MODIFIED":"20180101T090000Z",
      "LOCATION":"Winden",
      "SEQUENCE":"0",
      "STATUS":"CONFIRMED",
      "SUMMARY":"Gelber Sack",
      "TRANSP":"TRANSPARENT"
   },
   {
      "DTSTART;VALUE=DATE":"20181129",
      "DTEND;VALUE=DATE":"20181130",
      "DTSTAMP":"20180322T111107Z",
      "UID":"853fe3b06a30e21bbcd27a03658f14f3",
      "CREATED":"20180101T090000Z",
      "DESCRIPTION":"Papiertonne nicht vergessen!",
      "LAST-MODIFIED":"20180101T090000Z",
      "LOCATION":"Winden",
      "SEQUENCE":"0",
      "STATUS":"CONFIRMED",
      "SUMMARY":"Papiertonne",
      "TRANSP":"TRANSPARENT"
   },
   {
      "DTSTART;VALUE=DATE":"20181203",
      "DTEND;VALUE=DATE":"20181204",
      "DTSTAMP":"20180322T111107Z",
      "UID":"2430065f7594328d3e06872cf89815c8",
      "CREATED":"20180101T090000Z",
      "DESCRIPTION":"Graue Tonne nicht vergessen!",
      "LAST-MODIFIED":"20180101T090000Z",
      "LOCATION":"Winden",
      "SEQUENCE":"0",
      "STATUS":"CONFIRMED",
      "SUMMARY":"Graue Tonne",
      "TRANSP":"TRANSPARENT"
   },
   {
      "DTSTART;VALUE=DATE":"20181206",
      "DTEND;VALUE=DATE":"20181207",
      "DTSTAMP":"20180322T111107Z",
      "UID":"16e5f08572c9b336826ba8c0684cbe71",
      "CREATED":"20180101T090000Z",
      "DESCRIPTION":"Gelber Sack nicht vergessen!",
      "LAST-MODIFIED":"20180101T090000Z",
      "LOCATION":"Winden",
      "SEQUENCE":"0",
      "STATUS":"CONFIRMED",
      "SUMMARY":"Gelber Sack",
      "TRANSP":"TRANSPARENT"
   },
   {
      "DTSTART;VALUE=DATE":"20181217",
      "DTEND;VALUE=DATE":"20181218",
      "DTSTAMP":"20180322T111107Z",
      "UID":"7766edbe69adcfc2caee5b02984562d0",
      "CREATED":"20180101T090000Z",
      "DESCRIPTION":"Graue Tonne nicht vergessen!",
      "LAST-MODIFIED":"20180101T090000Z",
      "LOCATION":"Winden",
      "SEQUENCE":"0",
      "STATUS":"CONFIRMED",
      "SUMMARY":"Graue Tonne",
      "TRANSP":"TRANSPARENT"
   },
   {
      "DTSTART;VALUE=DATE":"20181220",
      "DTEND;VALUE=DATE":"20181221",
      "DTSTAMP":"20180322T111107Z",
      "UID":"171812bc9e5ba2e39589d87731c26d03",
      "CREATED":"20180101T090000Z",
      "DESCRIPTION":"Gelber Sack nicht vergessen!",
      "LAST-MODIFIED":"20180101T090000Z",
      "LOCATION":"Winden",
      "SEQUENCE":"0",
      "STATUS":"CONFIRMED",
      "SUMMARY":"Gelber Sack",
      "TRANSP":"TRANSPARENT"
   },
   {
      "DTSTART;VALUE=DATE":"20181228",
      "DTEND;VALUE=DATE":"20181229",
      "DTSTAMP":"20180322T111107Z",
      "UID":"476440030486287179c7a3c18a13a183",
      "CREATED":"20180101T090000Z",
      "DESCRIPTION":"Papiertonne nicht vergessen!",
      "LAST-MODIFIED":"20180101T090000Z",
      "LOCATION":"Winden",
      "SEQUENCE":"0",
      "STATUS":"CONFIRMED",
      "SUMMARY":"Papiertonne",
      "TRANSP":"TRANSPARENT"
   },
   {
      "DTSTART;VALUE=DATE":"20181231",
      "DTEND;VALUE=DATE":"20190101",
      "DTSTAMP":"20180322T111107Z",
      "UID":"49ad31ac77a33e2ec1fe2f2ce6d20a2f",
      "CREATED":"20180101T090000Z",
      "DESCRIPTION":"Graue Tonne nicht vergessen!",
      "LAST-MODIFIED":"20180101T090000Z",
      "LOCATION":"Winden",
      "SEQUENCE":"0",
      "STATUS":"CONFIRMED",
      "SUMMARY":"Graue Tonne",
      "TRANSP":"TRANSPARENT"
   }
]